<svg xmlns="http://www.w3.org/2000/svg" viewBox="0 0 5.96 9.96">
  <defs>
    <style>
      .cls-1 {
        fill: none;
        stroke: #000;
        stroke-linejoin: round;
        stroke-width: 0.11px;
      }
    </style>
  </defs>
  <g id="Layer_2" data-name="Layer 2">
    <g id="Layer_2-2" data-name="Layer 2">
      <g>
        <g>
          <line class="cls-1" x1="5.71" y1="0.25" x2="0.25" y2="9.71"/>
          <path d="M5.57.16A.19.19,0,0,1,5.8.1a.19.19,0,0,1,.06.23.18.18,0,0,1-.23.06A.18.18,0,0,1,5.57.16Z"/>
          <path d="M0,9.59a.27.27,0,0,0,.09.34A.25.25,0,1,0,0,9.59Z"/>
        </g>
        <g>
          <line class="cls-1" x1="4.92" y1="6.74" x2="5.71" y2="0.25"/>
          <path d="M5.09,6.76a.17.17,0,0,1-.19.14.16.16,0,1,1,0-.32A.17.17,0,0,1,5.09,6.76Z"/>
          <path d="M6,.28A.26.26,0,0,0,5.74,0,.25.25,0,1,0,6,.28Z"/>
        </g>
        <g>
          <line class="cls-1" x1="0.25" y1="9.71" x2="4.92" y2="6.74"/>
          <path d="M.33,9.85a.15.15,0,0,1-.22,0,.15.15,0,0,1,.05-.22.15.15,0,0,1,.22.05A.15.15,0,0,1,.33,9.85Z"/>
          <path d="M5.06,7a.25.25,0,0,0,.07-.34A.24.24,0,1,0,5.06,7Z"/>
        </g>
      </g>
    </g>
  </g>
</svg>
